<?xml version="1.0" encoding="UTF-8" standalone="no"?>
<!-- Created with Inkscape (http://www.inkscape.org/) -->

<svg
   width="64"
   height="64"
   viewBox="0 0 64 64"
   version="1.1"
   id="svg5"
   inkscape:version="1.1.1 (3bf5ae0d25, 2021-09-20)"
   sodipodi:docname="TouchpadEmulator.svg"
   inkscape:export-filename="/home/adam/TouchpadEmulator.png"
   inkscape:export-xdpi="96"
   inkscape:export-ydpi="96"
   xmlns:inkscape="http://www.inkscape.org/namespaces/inkscape"
   xmlns:sodipodi="http://sodipodi.sourceforge.net/DTD/sodipodi-0.dtd"
   xmlns="http://www.w3.org/2000/svg"
   xmlns:svg="http://www.w3.org/2000/svg">
  <sodipodi:namedview
     id="namedview7"
     pagecolor="#505050"
     bordercolor="#ffffff"
     borderopacity="1"
     inkscape:pageshadow="0"
     inkscape:pageopacity="0"
     inkscape:pagecheckerboard="1"
     inkscape:document-units="px"
     showgrid="true"
     width="64px"
     inkscape:zoom="9.09375"
     inkscape:cx="87.815711"
     inkscape:cy="13.196734"
     inkscape:window-width="2560"
     inkscape:window-height="1363"
     inkscape:window-x="0"
     inkscape:window-y="0"
     inkscape:window-maximized="1"
     inkscape:current-layer="layer1">
    <inkscape:grid
       type="xygrid"
       id="grid75" />
  </sodipodi:namedview>
  <defs
     id="defs2" />
  <g
     inkscape:label="Layer 1"
     inkscape:groupmode="layer"
     id="layer1">
    <rect
       style="fill:#1a1a1a;fill-rule:evenodd;stroke-width:1.0155;stroke:#4d4d4d;stroke-opacity:1"
       id="rect77"
       width="33"
       height="60"
       x="15.5"
       y="2"
       ry="5" />
    <rect
       style="fill:#999999;stroke-width:1.01909"
       id="rect1080"
       width="28"
       height="51"
       x="18"
       y="6.5"
       ry="0.92727274" />
    <path
       id="rect1339"
       style="stroke:#ffffff;stroke-width:1.22474;stroke-opacity:1"
       d="m 25.934686,20.401998 -1.339854,17.837209 4.413572,-2.553503 2.891748,8.522781 4.734879,-1.606526 -2.891748,-8.522781 5.056183,-0.659551 z"
       sodipodi:nodetypes="cccccccc" />
  </g>
</svg>
